
Log Entry : 
D:\Junaid Zaheer\GitHub\TNA\TNA\Logs\Jul 25 2019.txt
07/25/2019 19:25:38
Error in: http://localhost:3373/Admin/UploadDocuments. Error Message:Chrysanthemum.jpg
__________________________

Log Entry : 
D:\Junaid Zaheer\GitHub\TNA\TNA\Logs\Jul 25 2019.txt
07/25/2019 19:25:38
Error in: http://localhost:3373/Admin/UploadDocuments. Error Message:Chrysanthemum_1_7-25-20197-25-38PM.jpg
__________________________

Log Entry : 
D:\Junaid Zaheer\GitHub\TNA\TNA\Logs\Jul 25 2019.txt
07/25/2019 19:25:38
Error in: http://localhost:3373/Admin/UploadDocuments. Error Message:D:\Junaid Zaheer\GitHub\TNA\TNA\Attachments\Chrysanthemum_1_7-25-20197-25-38PM.jpg
__________________________

Log Entry : 
D:\Junaid Zaheer\GitHub\TNA\TNA\Logs\Jul 25 2019.txt
07/25/2019 19:37:01
Error in: http://localhost:3373/Admin/UploadDocuments. Error Message:Desert.jpg
__________________________

Log Entry : 
D:\Junaid Zaheer\GitHub\TNA\TNA\Logs\Jul 25 2019.txt
07/25/2019 19:37:01
Error in: http://localhost:3373/Admin/UploadDocuments. Error Message:Desert_1_7-25-20197-37-01PM.jpg
__________________________

Log Entry : 
D:\Junaid Zaheer\GitHub\TNA\TNA\Logs\Jul 25 2019.txt
07/25/2019 19:37:01
Error in: http://localhost:3373/Admin/UploadDocuments. Error Message:D:\Junaid Zaheer\GitHub\TNA\TNA\Attachments\Desert_1_7-25-20197-37-01PM.jpg
__________________________
