
Log Entry : 
D:\Junaid Zaheer\GitHub\TNA\TNA\Logs\May 28 2019.txt
05/28/2019 14:43:56
Error in: http://localhost:3373/Admin/UploadDocuments. Error Message:Jellyfish.jpg
__________________________

Log Entry : 
D:\Junaid Zaheer\GitHub\TNA\TNA\Logs\May 28 2019.txt
05/28/2019 14:43:56
Error in: http://localhost:3373/Admin/UploadDocuments. Error Message:Jellyfish_1_5-28-20192-43-56PM.jpg
__________________________

Log Entry : 
D:\Junaid Zaheer\GitHub\TNA\TNA\Logs\May 28 2019.txt
05/28/2019 14:43:56
Error in: http://localhost:3373/Admin/UploadDocuments. Error Message:D:\Junaid Zaheer\GitHub\TNA\TNA\Attachments\Jellyfish_1_5-28-20192-43-56PM.jpg
__________________________

Log Entry : 
D:\Junaid Zaheer\GitHub\TNA\TNA\Logs\May 28 2019.txt
05/28/2019 14:48:47
Error in: http://localhost:3373/Admin/UploadDocuments. Error Message:Jellyfish.jpg
__________________________

Log Entry : 
D:\Junaid Zaheer\GitHub\TNA\TNA\Logs\May 28 2019.txt
05/28/2019 14:48:47
Error in: http://localhost:3373/Admin/UploadDocuments. Error Message:Jellyfish_1_5-28-20192-48-47PM.jpg
__________________________

Log Entry : 
D:\Junaid Zaheer\GitHub\TNA\TNA\Logs\May 28 2019.txt
05/28/2019 14:48:47
Error in: http://localhost:3373/Admin/UploadDocuments. Error Message:D:\Junaid Zaheer\GitHub\TNA\TNA\Attachments\Jellyfish_1_5-28-20192-48-47PM.jpg
__________________________
