
Log Entry : 
D:\Junaid Zaheer\Projects\TNA Project\TNA\TNA\Logs\May 07 2019.txt
05/07/2019 13:57:28
Error in: http://localhost:3373/Admin/UploadDocuments. Error Message:Jellyfish.jpg
__________________________

Log Entry : 
D:\Junaid Zaheer\Projects\TNA Project\TNA\TNA\Logs\May 07 2019.txt
05/07/2019 13:57:28
Error in: http://localhost:3373/Admin/UploadDocuments. Error Message:Jellyfish_1_5-7-20191-57-28PM.jpg
__________________________

Log Entry : 
D:\Junaid Zaheer\Projects\TNA Project\TNA\TNA\Logs\May 07 2019.txt
05/07/2019 13:57:28
Error in: http://localhost:3373/Admin/UploadDocuments. Error Message:D:\Junaid Zaheer\Projects\TNA Project\TNA\TNA\Attachments\Jellyfish15-7-20191-57-28PM.jpg
__________________________

Log Entry : 
D:\Junaid Zaheer\Projects\TNA Project\TNA\TNA\Logs\May 07 2019.txt
05/07/2019 15:47:24
Error in: http://localhost:3373/Admin/UploadDocuments. Error Message:Tulips.jpg
__________________________

Log Entry : 
D:\Junaid Zaheer\Projects\TNA Project\TNA\TNA\Logs\May 07 2019.txt
05/07/2019 15:47:24
Error in: http://localhost:3373/Admin/UploadDocuments. Error Message:Tulips_1_5-7-20193-47-24PM.jpg
__________________________

Log Entry : 
D:\Junaid Zaheer\Projects\TNA Project\TNA\TNA\Logs\May 07 2019.txt
05/07/2019 15:47:24
Error in: http://localhost:3373/Admin/UploadDocuments. Error Message:D:\Junaid Zaheer\Projects\TNA Project\TNA\TNA\Attachments\Tulips15-7-20193-47-24PM.jpg
__________________________

Log Entry : 
D:\Junaid Zaheer\Projects\TNA Project\TNA\TNA\Logs\May 07 2019.txt
05/07/2019 15:47:39
Error in: http://localhost:3373/Admin/UploadDocuments. Error Message:Lighthouse.jpg
__________________________

Log Entry : 
D:\Junaid Zaheer\Projects\TNA Project\TNA\TNA\Logs\May 07 2019.txt
05/07/2019 15:47:39
Error in: http://localhost:3373/Admin/UploadDocuments. Error Message:Lighthouse_1_5-7-20193-47-39PM.jpg
__________________________

Log Entry : 
D:\Junaid Zaheer\Projects\TNA Project\TNA\TNA\Logs\May 07 2019.txt
05/07/2019 15:47:39
Error in: http://localhost:3373/Admin/UploadDocuments. Error Message:D:\Junaid Zaheer\Projects\TNA Project\TNA\TNA\Attachments\Lighthouse15-7-20193-47-39PM.jpg
__________________________

Log Entry : 
D:\Junaid Zaheer\Projects\TNA Project\TNA\TNA\Logs\May 07 2019.txt
05/07/2019 15:47:58
Error in: http://localhost:3373/Admin/UploadDocuments. Error Message:Jellyfish.jpg
__________________________

Log Entry : 
D:\Junaid Zaheer\Projects\TNA Project\TNA\TNA\Logs\May 07 2019.txt
05/07/2019 15:47:58
Error in: http://localhost:3373/Admin/UploadDocuments. Error Message:Jellyfish_1_5-7-20193-47-58PM.jpg
__________________________

Log Entry : 
D:\Junaid Zaheer\Projects\TNA Project\TNA\TNA\Logs\May 07 2019.txt
05/07/2019 15:47:58
Error in: http://localhost:3373/Admin/UploadDocuments. Error Message:D:\Junaid Zaheer\Projects\TNA Project\TNA\TNA\Attachments\Jellyfish15-7-20193-47-58PM.jpg
__________________________

Log Entry : 
D:\Junaid Zaheer\Projects\TNA Project\TNA\TNA\Logs\May 07 2019.txt
05/07/2019 15:47:58
Error in: http://localhost:3373/Admin/UploadDocuments. Error Message:Koala.jpg
__________________________

Log Entry : 
D:\Junaid Zaheer\Projects\TNA Project\TNA\TNA\Logs\May 07 2019.txt
05/07/2019 15:47:58
Error in: http://localhost:3373/Admin/UploadDocuments. Error Message:Koala_1_5-7-20193-47-58PM.jpg
__________________________

Log Entry : 
D:\Junaid Zaheer\Projects\TNA Project\TNA\TNA\Logs\May 07 2019.txt
05/07/2019 15:47:58
Error in: http://localhost:3373/Admin/UploadDocuments. Error Message:D:\Junaid Zaheer\Projects\TNA Project\TNA\TNA\Attachments\Koala15-7-20193-47-58PM.jpg
__________________________

Log Entry : 
D:\Junaid Zaheer\Projects\TNA Project\TNA\TNA\Logs\May 07 2019.txt
05/07/2019 15:47:58
Error in: http://localhost:3373/Admin/UploadDocuments. Error Message:Lighthouse.jpg
__________________________

Log Entry : 
D:\Junaid Zaheer\Projects\TNA Project\TNA\TNA\Logs\May 07 2019.txt
05/07/2019 15:47:58
Error in: http://localhost:3373/Admin/UploadDocuments. Error Message:Lighthouse_1_5-7-20193-47-58PM.jpg
__________________________

Log Entry : 
D:\Junaid Zaheer\Projects\TNA Project\TNA\TNA\Logs\May 07 2019.txt
05/07/2019 15:47:58
Error in: http://localhost:3373/Admin/UploadDocuments. Error Message:D:\Junaid Zaheer\Projects\TNA Project\TNA\TNA\Attachments\Lighthouse15-7-20193-47-58PM.jpg
__________________________

Log Entry : 
D:\Junaid Zaheer\Projects\TNA Project\TNA\TNA\Logs\May 07 2019.txt
05/07/2019 15:47:58
Error in: http://localhost:3373/Admin/UploadDocuments. Error Message:Penguins.jpg
__________________________

Log Entry : 
D:\Junaid Zaheer\Projects\TNA Project\TNA\TNA\Logs\May 07 2019.txt
05/07/2019 15:47:58
Error in: http://localhost:3373/Admin/UploadDocuments. Error Message:Penguins_1_5-7-20193-47-58PM.jpg
__________________________

Log Entry : 
D:\Junaid Zaheer\Projects\TNA Project\TNA\TNA\Logs\May 07 2019.txt
05/07/2019 15:47:58
Error in: http://localhost:3373/Admin/UploadDocuments. Error Message:D:\Junaid Zaheer\Projects\TNA Project\TNA\TNA\Attachments\Penguins15-7-20193-47-58PM.jpg
__________________________

Log Entry : 
D:\Junaid Zaheer\Projects\TNA Project\TNA\TNA\Logs\May 07 2019.txt
05/07/2019 15:47:58
Error in: http://localhost:3373/Admin/UploadDocuments. Error Message:Tulips.jpg
__________________________

Log Entry : 
D:\Junaid Zaheer\Projects\TNA Project\TNA\TNA\Logs\May 07 2019.txt
05/07/2019 15:47:58
Error in: http://localhost:3373/Admin/UploadDocuments. Error Message:Tulips_1_5-7-20193-47-58PM.jpg
__________________________

Log Entry : 
D:\Junaid Zaheer\Projects\TNA Project\TNA\TNA\Logs\May 07 2019.txt
05/07/2019 15:47:58
Error in: http://localhost:3373/Admin/UploadDocuments. Error Message:D:\Junaid Zaheer\Projects\TNA Project\TNA\TNA\Attachments\Tulips15-7-20193-47-58PM.jpg
__________________________

Log Entry : 
D:\Junaid Zaheer\Projects\TNA Project\TNA\TNA\Logs\May 07 2019.txt
05/07/2019 15:48:09
Error in: http://localhost:3373/Admin/UploadDocuments. Error Message:Hydrangeas.jpg
__________________________

Log Entry : 
D:\Junaid Zaheer\Projects\TNA Project\TNA\TNA\Logs\May 07 2019.txt
05/07/2019 15:48:09
Error in: http://localhost:3373/Admin/UploadDocuments. Error Message:Hydrangeas_1_5-7-20193-48-09PM.jpg
__________________________

Log Entry : 
D:\Junaid Zaheer\Projects\TNA Project\TNA\TNA\Logs\May 07 2019.txt
05/07/2019 15:48:09
Error in: http://localhost:3373/Admin/UploadDocuments. Error Message:D:\Junaid Zaheer\Projects\TNA Project\TNA\TNA\Attachments\Hydrangeas15-7-20193-48-09PM.jpg
__________________________

Log Entry : 
D:\Junaid Zaheer\Projects\TNA Project\TNA\TNA\Logs\May 07 2019.txt
05/07/2019 15:48:09
Error in: http://localhost:3373/Admin/UploadDocuments. Error Message:Lighthouse.jpg
__________________________

Log Entry : 
D:\Junaid Zaheer\Projects\TNA Project\TNA\TNA\Logs\May 07 2019.txt
05/07/2019 15:48:09
Error in: http://localhost:3373/Admin/UploadDocuments. Error Message:Lighthouse_1_5-7-20193-48-09PM.jpg
__________________________

Log Entry : 
D:\Junaid Zaheer\Projects\TNA Project\TNA\TNA\Logs\May 07 2019.txt
05/07/2019 15:48:09
Error in: http://localhost:3373/Admin/UploadDocuments. Error Message:D:\Junaid Zaheer\Projects\TNA Project\TNA\TNA\Attachments\Lighthouse15-7-20193-48-09PM.jpg
__________________________

Log Entry : 
D:\Junaid Zaheer\Projects\TNA Project\TNA\TNA\Logs\May 07 2019.txt
05/07/2019 15:50:48
Error in: http://localhost:3373/Admin/UploadDocuments. Error Message:Lighthouse.jpg
__________________________

Log Entry : 
D:\Junaid Zaheer\Projects\TNA Project\TNA\TNA\Logs\May 07 2019.txt
05/07/2019 15:50:48
Error in: http://localhost:3373/Admin/UploadDocuments. Error Message:Lighthouse_1_5-7-20193-50-48PM.jpg
__________________________

Log Entry : 
D:\Junaid Zaheer\Projects\TNA Project\TNA\TNA\Logs\May 07 2019.txt
05/07/2019 15:50:48
Error in: http://localhost:3373/Admin/UploadDocuments. Error Message:D:\Junaid Zaheer\Projects\TNA Project\TNA\TNA\Attachments\Lighthouse15-7-20193-50-48PM.jpg
__________________________

Log Entry : 
D:\Junaid Zaheer\Projects\TNA Project\TNA\TNA\Logs\May 07 2019.txt
05/07/2019 15:51:05
Error in: http://localhost:3373/Admin/UploadDocuments. Error Message:Penguins.jpg
__________________________

Log Entry : 
D:\Junaid Zaheer\Projects\TNA Project\TNA\TNA\Logs\May 07 2019.txt
05/07/2019 15:51:05
Error in: http://localhost:3373/Admin/UploadDocuments. Error Message:Penguins_1_5-7-20193-51-05PM.jpg
__________________________

Log Entry : 
D:\Junaid Zaheer\Projects\TNA Project\TNA\TNA\Logs\May 07 2019.txt
05/07/2019 15:51:05
Error in: http://localhost:3373/Admin/UploadDocuments. Error Message:D:\Junaid Zaheer\Projects\TNA Project\TNA\TNA\Attachments\Penguins15-7-20193-51-05PM.jpg
__________________________

Log Entry : 
D:\Junaid Zaheer\Projects\TNA Project\TNA\TNA\Logs\May 07 2019.txt
05/07/2019 15:52:14
Error in: http://localhost:3373/Admin/UploadDocuments. Error Message:Lighthouse.jpg
__________________________

Log Entry : 
D:\Junaid Zaheer\Projects\TNA Project\TNA\TNA\Logs\May 07 2019.txt
05/07/2019 15:52:14
Error in: http://localhost:3373/Admin/UploadDocuments. Error Message:Lighthouse_1_5-7-20193-52-14PM.jpg
__________________________

Log Entry : 
D:\Junaid Zaheer\Projects\TNA Project\TNA\TNA\Logs\May 07 2019.txt
05/07/2019 15:52:14
Error in: http://localhost:3373/Admin/UploadDocuments. Error Message:D:\Junaid Zaheer\Projects\TNA Project\TNA\TNA\Attachments\Lighthouse15-7-20193-52-14PM.jpg
__________________________

Log Entry : 
D:\Junaid Zaheer\Projects\TNA Project\TNA\TNA\Logs\May 07 2019.txt
05/07/2019 15:52:42
Error in: http://localhost:3373/Admin/UploadDocuments. Error Message:Tulips.jpg
__________________________

Log Entry : 
D:\Junaid Zaheer\Projects\TNA Project\TNA\TNA\Logs\May 07 2019.txt
05/07/2019 15:52:42
Error in: http://localhost:3373/Admin/UploadDocuments. Error Message:Tulips_1_5-7-20193-52-42PM.jpg
__________________________

Log Entry : 
D:\Junaid Zaheer\Projects\TNA Project\TNA\TNA\Logs\May 07 2019.txt
05/07/2019 15:52:42
Error in: http://localhost:3373/Admin/UploadDocuments. Error Message:D:\Junaid Zaheer\Projects\TNA Project\TNA\TNA\Attachments\Tulips15-7-20193-52-42PM.jpg
__________________________

Log Entry : 
D:\Junaid Zaheer\Projects\TNA Project\TNA\TNA\Logs\May 07 2019.txt
05/07/2019 15:53:25
Error in: http://localhost:3373/Admin/UploadDocuments. Error Message:Tulips.jpg
__________________________

Log Entry : 
D:\Junaid Zaheer\Projects\TNA Project\TNA\TNA\Logs\May 07 2019.txt
05/07/2019 15:53:25
Error in: http://localhost:3373/Admin/UploadDocuments. Error Message:Tulips_1_5-7-20193-53-25PM.jpg
__________________________

Log Entry : 
D:\Junaid Zaheer\Projects\TNA Project\TNA\TNA\Logs\May 07 2019.txt
05/07/2019 15:53:25
Error in: http://localhost:3373/Admin/UploadDocuments. Error Message:D:\Junaid Zaheer\Projects\TNA Project\TNA\TNA\Attachments\Tulips15-7-20193-53-25PM.jpg
__________________________
